{
  "channel": "beta",
  "supervisor": "2022.08.5",
  "homeassistant": {
    "default": "2022.9.0b5",
    "qemux86": "2022.9.0b5",
    "qemux86-64": "2022.9.0b5",
    "qemuarm": "2022.9.0b5",
    "qemuarm-64": "2022.9.0b5",
    "generic-x86-64": "2022.9.0b5",
    "intel-nuc": "2022.9.0b5",
    "khadas-vim3": "2022.9.0b5",
    "raspberrypi": "2022.9.0b5",
    "raspberrypi2": "2022.9.0b5",
    "raspberrypi3": "2022.9.0b5",
    "raspberrypi3-64": "2022.9.0b5",
    "raspberrypi4": "2022.9.0b5",
    "raspberrypi4-64": "2022.9.0b5",
    "yellow": "2022.9.0b5",
    "tinker": "2022.9.0b5",
    "odroid-c2": "2022.9.0b5",
    "odroid-c4": "2022.9.0b5",
    "odroid-n2": "2022.9.0b5",
    "odroid-xu": "2022.9.0b5"
  },
  "hassos": {
    "ova": "9.0.rc1",
    "rpi2": "9.0.rc1",
    "rpi3": "9.0.rc1",
    "rpi3-64": "9.0.rc1",
    "rpi4": "9.0.rc1",
    "rpi4-64": "9.0.rc1",
    "yellow": "9.0.rc1",
    "tinker": "9.0.rc1",
    "odroid-c2": "9.0.rc1",
    "odroid-c4": "9.0.rc1",
    "odroid-n2": "9.0.rc1",
    "odroid-xu4": "9.0.rc1",
    "generic-x86-64": "9.0.rc1",
    "generic-aarch64": "9.0.rc1",
    "intel-nuc": "9.0.rc1",
    "khadas-vim3": "9.0.rc1"
  },
  "hassos-upgrade": {
    "7": "7.6",
    "6": "6.6",
    "5": "5.13",
    "4": "4.20",
    "3": "3.13"
  },
  "ota": "https://github.com/home-assistant/operating-system/releases/download/{version}/{os_name}_{board}-{version}.raucb",
  "cli": "2022.08.0",
  "dns": "2022.04.1",
  "audio": "2022.07.0",
  "multicast": "2022.02.0",
  "observer": "2021.10.0",
  "image": {
    "core": "ghcr.io/home-assistant/{machine}-homeassistant",
    "supervisor": "javishome/aarch64-hassio-supervisor-202208",
    "cli": "ghcr.io/home-assistant/{arch}-hassio-cli",
    "audio": "ghcr.io/home-assistant/{arch}-hassio-audio",
    "dns": "ghcr.io/home-assistant/{arch}-hassio-dns",
    "observer": "ghcr.io/home-assistant/{arch}-hassio-observer",
    "multicast": "ghcr.io/home-assistant/{arch}-hassio-multicast"
  },
  "images": {
    "core": "ghcr.io/home-assistant/{machine}-homeassistant",
    "supervisor": "javishome/aarch64-hassio-supervisor-202208",
    "cli": "ghcr.io/home-assistant/{arch}-hassio-cli",
    "audio": "ghcr.io/home-assistant/{arch}-hassio-audio",
    "dns": "ghcr.io/home-assistant/{arch}-hassio-dns",
    "observer": "ghcr.io/home-assistant/{arch}-hassio-observer",
    "multicast": "ghcr.io/home-assistant/{arch}-hassio-multicast"
  }
}