{
  "name": "JAVIS DAIKIN-VRV",
  "version": "1.1.1",
  "slug": "javis_daikin_vrv",
  "url": "https://javishome.vn",
  "description": "Javis VRV converter",
  "image": "javishome/vrvaddon",
  "arch": [
    "armhf",
    "armv7",
    "aarch64",
    "amd64",
    "i386"
  ],
  "map": ["config:rw", "ssl:rw", "addons:rw", "share:rw", "backup:rw", "media:rw"],
  "startup": "application",
  "host_network": true,
  "boot": "auto",
  "options": {
    "mqtt": {
      "server": "127.0.0.1",
      "port": 1883,
      "username": "javis",
      "password": "javis2020"
    }
  },
  "schema": {
    "mqtt": {
      "server": "str",
      "port": "int",
      "username": "str",
      "password": "str"
    },
    "not_need": "str?"
  },
  "discovery": [
    "mqtt"
  ],
  "services": [
    "mqtt:need"
  ]
}