{
  "channel": "stable",
  "supervisor": "2021.12.2",
  "homeassistant": {
    "default": "2021.12.7",
    "qemux86": "2021.12.7",
    "qemux86-64": "2021.12.7",
    "qemuarm": "2021.12.7",
    "qemuarm-64": "2021.12.7",
    "generic-x86-64": "2021.12.7",
    "intel-nuc": "2021.12.7",
    "khadas-vim3": "2021.12.7",
    "raspberrypi": "2021.12.7",
    "raspberrypi2": "2021.12.7",
    "raspberrypi3": "2021.11.5",
    "raspberrypi3-64": "2021.11.5",
    "raspberrypi4": "2021.11.5",
    "raspberrypi4-64": "2021.11.5",
    "tinker": "2021.12.7",
    "odroid-c2": "2021.12.7",
    "odroid-c4": "2021.12.7",
    "odroid-n2": "2021.12.7",
    "odroid-xu": "2021.12.7"
  },
  "hassos": {
    "ova": "7.0",
    "rpi2": "7.0",
    "rpi3": "7.0",
    "rpi3-64": "7.0",
    "rpi4": "7.0",
    "rpi4-64": "7.0",
    "tinker": "7.0",
    "odroid-c2": "7.0",
    "odroid-c4": "7.0",
    "odroid-n2": "7.0",
    "odroid-xu4": "7.0",
    "generic-x86-64": "7.0",
    "intel-nuc": "7.0",
    "khadas-vim3": "7.0"
  },
  "ota": "https://github.com/home-assistant/operating-system/releases/download/{version}/{os_name}_{board}-{version}.raucb",
  "cli": "2021.09.0",
  "dns": "2021.06.0",
  "audio": "2021.07.0",
  "multicast": "2021.04.0",
  "observer": "2021.10.0",
  "image": {
    "core": "homeassistant/{machine}-homeassistant",
    "supervisor": "homeassistant/{arch}-hassio-supervisor",
    "cli": "homeassistant/{arch}-hassio-cli",
    "audio": "homeassistant/{arch}-hassio-audio",
    "dns": "homeassistant/{arch}-hassio-dns",
    "observer": "homeassistant/{arch}-hassio-observer",
    "multicast": "homeassistant/{arch}-hassio-multicast"
  },
  "images": {
    "core": "ghcr.io/home-assistant/{machine}-homeassistant",
    "supervisor": "ghcr.io/home-assistant/{arch}-hassio-supervisor",
    "cli": "ghcr.io/home-assistant/{arch}-hassio-cli",
    "audio": "ghcr.io/home-assistant/{arch}-hassio-audio",
    "dns": "ghcr.io/home-assistant/{arch}-hassio-dns",
    "observer": "ghcr.io/home-assistant/{arch}-hassio-observer",
    "multicast": "ghcr.io/home-assistant/{arch}-hassio-multicast"
  }
}