{
  "name": "Zigbee2mqtt",
  "version": "1.18.2-21",
  "slug": "zigbee2mqtt",
  "description": "Zigbee2mqtt add-on",
  "uart": true,
  "url": "https://github.com/zigbee2mqtt/hassio-zigbee2mqtt/tree/master/zigbee2mqtt",
  "startup": "application",
  "services": [
    "mqtt:need"
  ],
  "arch": [
    "aarch64"
  ],
  "boot": "auto",
  "ingress": true,
  "panel_icon": "mdi:zigbee",
  "map": [
    "share:rw",
    "config:rw"
  ],
  "ports": {
    "8485/tcp": 8485
  },
  "ports_description": {
    "8485/tcp": "Socat tcp-listen port"
  },
  "options": {
    "data_path": "/config/zigbee2mqtt",
    "external_converters": [],
    "devices": "devices.yaml",
    "groups": "groups.yaml",
    "homeassistant": true,
    "permit_join": false,
    "mqtt": {
      "base_topic": "zigbee2mqtt"
    },
    "serial": {
      "port": "/dev/ttyACM0"
    },
    "advanced": {
      "log_level": "warn",
      "pan_id": 6754,
      "channel": 11,
      "network_key": [1, 3, 5, 7, 9, 11, 13, 15, 0, 2, 4, 6, 8, 10, 12, 13],
      "availability_blocklist": [],
      "availability_passlist": []
    },
    "device_options": {},
    "blocklist": [],
    "passlist": [],
    "queue": {},
    "frontend": {
      "port": 8099
    },
    "experimental": {},
    "socat": {
      "enabled": false,
      "master": "pty,raw,echo=0,link=/tmp/ttyZ2M,mode=777",
      "slave": "tcp-listen:8485,keepalive,nodelay,reuseaddr,keepidle=1,keepintvl=1,keepcnt=5",
      "options": "-d -d",
      "log": false
    }
  },
  "schema": {
    "zigbee_shepherd_devices": "bool?",
    "zigbee_herdsman_debug": "bool?",
    "external_converters": [
      "str?"
    ],
    "data_path": "str",
    "devices": "str?",
    "groups": "str?",
    "homeassistant": "bool",
    "permit_join": "bool",
    "mqtt": {
      "base_topic": "str",
      "server": "str?",
      "ca": "str?",
      "key": "str?",
      "cert": "str?",
      "user": "str?",
      "password": "str?",
      "client_id": "str?",
      "keepalive": "int?",
      "version": "int?",
      "reject_unauthorized": "bool?",
      "include_device_information": "bool?",
      "force_disable_retain": "bool?"
    },
    "serial": {
      "port": "str",
      "disable_led": "bool?",
      "adapter": "match(^zstack|deconz|zigate|ezsp$)?"
    },
    "blocklist": [
      "str?"
    ],
    "passlist": [
      "str?"
    ],
    "advanced": {
      "pan_id": "int(0,65536)?",
      "ext_pan_id_string": "match(^(\\s*\\d+\\s*,){7}(\\s*\\d+\\s*)$)?",
      "channel": "int(11,26)?",
      "cache_state": "bool?",
      "cache_state_persistent": "bool?",
      "cache_state_send_on_startup": "bool?",
      "log_level": "match(^info|debug|warn|error$)?",
      "log_directory": "str?",
      "log_file": "str?",
      "log_rotation": "bool?",
      "timestamp_format": "str?",
      "baudrate": "int?",
      "rtscts": "bool?",
      "soft_reset_timeout": "int?",
      "adapter_concurrent": "int?",
      "adapter_delay": "int?",
      "network_key": [
        "int?"
      ],
      "network_key_string": "match(^(\\s*\\d+\\s*,){15}(\\s*\\d+\\s*)$)?",
      "last_seen": "match(^disable|ISO_8601|epoch)?",
      "elapsed": "bool?",
      "availability_timeout": "int?",
      "availability_blocklist": [
        "str?"
      ],
      "availability_passlist": [
        "str?"
      ],
      "report": "bool?",
      "homeassistant_discovery_topic": "str?",
      "homeassistant_status_topic": "str?",
      "homeassistant_legacy_triggers": "bool?",
      "ikea_ota_use_test_url": "bool?",
      "legacy_api": "bool?"
    },
    "device_options": {
      "occupancy_timeout": "int?",
      "temperature_precision": "int?",
      "legacy": "bool?"
    },
    "device_options_string": "str?",
    "queue": {
      "delay": "int?",
      "simultaneously": "int?"
    },
    "experimental": {
      "transmit_power": "int?",
      "output": "str?"
    },
    "frontend": {
      "host": "str?",
      "port": "int?"
    },
    "socat": {
      "enabled": "bool?",
      "master": "str?",
      "slave": "str?",
      "options": "str?",
      "log": "bool?"
    }
  },
  "image": "javishome/zigbee2mqtt"
}
