{
  "channel": "beta",
  "supervisor": "2024.06.2",
  "homeassistant": {
    "default": "2024.7.3",
    "qemux86": "2024.7.3",
    "qemux86-64": "2024.7.3",
    "qemuarm": "2024.7.3",
    "qemuarm-64": "2024.7.3",
    "generic-x86-64": "2024.7.3",
    "intel-nuc": "2024.7.3",
    "khadas-vim3": "2024.7.3",
    "raspberrypi": "2024.7.3",
    "raspberrypi2": "2024.7.3",
    "raspberrypi3": "2024.7.3",
    "raspberrypi3-64": "2024.7.3",
    "raspberrypi4": "2024.7.3",
    "raspberrypi4-64": "2024.7.3",
    "raspberrypi5-64": "2024.7.3",
    "yellow": "2024.7.3",
    "green": "2024.7.3",
    "tinker": "2024.7.3",
    "odroid-c2": "2024.7.3",
    "odroid-c4": "2024.7.3",
    "odroid-m1": "2024.7.3",
    "odroid-n2": "2024.7.3",
    "odroid-xu": "2024.7.3"
  },
  "hassos": {
    "ova": "12.4",
    "rpi2": "12.4",
    "rpi3": "12.4",
    "rpi3-64": "12.4",
    "rpi4": "12.4",
    "rpi4-64": "12.4",
    "rpi5-64": "12.4",
    "yellow": "12.4",
    "green": "12.4",
    "tinker": "12.4",
    "odroid-c2": "12.4",
    "odroid-c4": "12.4",
    "odroid-m1": "12.4",
    "odroid-m1s": "12.4",
    "odroid-n2": "12.4",
    "odroid-xu4": "12.4",
    "generic-x86-64": "12.4",
    "generic-aarch64": "12.4",
    "khadas-vim3": "12.4"
  },
  "hassos-upgrade": {
    "11": "11.5",
    "10": "10.5",
    "9": "9.5",
    "8": "8.5",
    "7": "7.6",
    "6": "6.6",
    "5": "5.13",
    "4": "4.20",
    "3": "3.13"
  },
  "ota": "https://os-artifacts.home-assistant.io/{version}/{os_name}_{board}-{version}.raucb",
  "cli": "2024.07.0",
  "dns": "2024.04.0",
  "audio": "2023.12.0",
  "multicast": "2024.03.0",
  "observer": "2023.06.0",
  "image": {
    "core": "ghcr.io/home-assistant/{machine}-homeassistant",
    "supervisor": "javishome/aarch64-hassio-supervisor-202406",
    "cli": "ghcr.io/home-assistant/{arch}-hassio-cli",
    "audio": "ghcr.io/home-assistant/{arch}-hassio-audio",
    "dns": "ghcr.io/home-assistant/{arch}-hassio-dns",
    "observer": "ghcr.io/home-assistant/{arch}-hassio-observer",
    "multicast": "ghcr.io/home-assistant/{arch}-hassio-multicast"
  },
  "images": {
    "core": "ghcr.io/home-assistant/{machine}-homeassistant",
    "supervisor": "javishome/aarch64-hassio-supervisor-202406",
    "cli": "ghcr.io/home-assistant/{arch}-hassio-cli",
    "audio": "ghcr.io/home-assistant/{arch}-hassio-audio",
    "dns": "ghcr.io/home-assistant/{arch}-hassio-dns",
    "observer": "ghcr.io/home-assistant/{arch}-hassio-observer",
    "multicast": "ghcr.io/home-assistant/{arch}-hassio-multicast"
  }
}